<?xml version="1.0" encoding="utf-8"?>
<!-- Generator: Adobe Illustrator 20.1.0, SVG Export Plug-In . SVG Version: 6.00 Build 0)  -->
<svg version="1.1" id="Layer_1" xmlns="http://www.w3.org/2000/svg" xmlns:xlink="http://www.w3.org/1999/xlink" x="0px" y="0px"
	 width="93px" height="93px" viewBox="0 0 93 93" style="enable-background:new 0 0 93 93;" xml:space="preserve">
<style type="text/css">
	.st0{fill:#FFFFFF;}
</style>
<g>
	<path class="st0" d="M90,92.6H2.9c-1.4,0-2.5-1.1-2.5-2.5V3c0-1.4,1.1-2.5,2.5-2.5H90c1.4,0,2.5,1.1,2.5,2.5v87.1
		C92.5,91.5,91.4,92.6,90,92.6z M5.4,87.6h82.2V5.5H5.4V87.6z"/>
</g>
<g>
	<path class="st0" d="M81.1,83.4H12c-1.4,0-2.5-1.1-2.5-2.5V11.9c0-1.4,1.1-2.5,2.5-2.5h69.1c1.4,0,2.5,1.1,2.5,2.5V81
		C83.6,82.3,82.5,83.4,81.1,83.4z M14.5,78.5h64.1V14.4H14.5V78.5z"/>
</g>
<g>
	<path class="st0" d="M72,74.6H20.9c-1.4,0-2.5-1.1-2.5-2.5V21c0-1.4,1.1-2.5,2.5-2.5H72c1.4,0,2.5,1.1,2.5,2.5v51.1
		C74.5,73.5,73.4,74.6,72,74.6z M23.4,69.6h46.1V23.5H23.4V69.6z"/>
</g>
<g id="NBKowI.tif">
	<g>
		<g>
			<path class="st0" d="M48.9,45.3c0.5-0.4,1-0.9,1.6-1.3c0.7-0.5,1.5-0.8,2.3-0.8c1,0,1.9,0.3,2.7,0.9c1.2,0.9,1.8,2.2,1.6,3.7
				c-0.2,1.4-1,2.3-2.2,2.8c-0.6,0.3-1.2,0.4-1.9,0.6c0,0,0-0.1,0-0.1c0-0.1,0.1-0.2,0.1-0.2c0.3-0.5,0.3-1,0.1-1.5
				c-0.2-0.7-0.8-1.1-1.5-1.1c-0.9-0.1-1.6,0.3-2,1.1c-0.2,0.3-0.3,0.6-0.5,1c0.3,0,0.5,0,0.7,0c0.5,0,0.9,0.4,1,0.9
				c0,0.5-0.4,0.9-0.9,1c-0.3,0-0.6,0-1,0c0.2,0.4,0.3,0.7,0.4,1c0.4,0.7,1,1.2,1.5,1.7c0.6,0.5,1.2,1,1.9,1.6
				c-0.9,0-1.8-0.2-2.6-0.5c-0.8-0.3-1.5-0.8-2.3-1.2c0.1,0.4,0.4,0.9,0.8,1.2c0.4,0.3,0.8,0.5,1.2,0.8c-0.1,0.6-1,1.4-1.8,1.5
				c-0.2,0-0.4,0.1-0.4,0.4c-0.2,0.9-0.7,1.6-1.3,2.2c-0.1,0.1-0.2,0.1-0.3,0c-0.7-0.6-1.2-1.4-1.3-2.3c0-0.2-0.1-0.3-0.3-0.3
				c-1-0.1-1.5-0.7-1.9-1.5c0.4-0.3,0.9-0.5,1.3-0.8c0.4-0.3,0.7-0.7,0.8-1.3c-1.5,1-3,1.7-4.8,1.7c0.3-0.2,0.6-0.5,0.8-0.7
				c0.7-0.6,1.3-1.2,2-1.8c0.5-0.5,0.8-1.1,0.9-1.8c-0.2,0-0.5,0-0.7,0c-0.5,0-0.9-0.4-0.9-0.8c-0.1-0.5,0.2-1,0.7-1.1
				c0.2-0.1,0.5,0,0.8,0c-0.2-1.4-1.5-2.3-2.8-2c-0.8,0.2-1.3,0.9-1.2,1.8c0,0.4,0.2,0.7,0.3,1.1c-1.1-0.2-2.1-0.5-3-1.3
				c-1.2-1.1-1.4-2.8-0.8-4.2c0.6-1.4,2.4-2.7,4.2-2.4c1,0.1,1.8,0.6,2.6,1.2c0.4,0.3,0.8,0.7,1.1,1.1c-0.1-0.3-0.2-0.5-0.3-0.8
				c-0.3-0.8-0.6-1.6-1-2.3c-0.6-1.4-0.6-2.9-0.2-4.4c0.5-1.7,1.4-3.2,2.6-4.5c0.4-0.5,0.9-0.9,1.4-1.4c0.3,0.3,0.7,0.7,1,1
				c1.2,1.2,2.1,2.6,2.7,4.2c0.3,0.9,0.5,1.7,0.5,2.6c0,1-0.3,2-0.7,2.9C49.6,43.6,49.3,44.5,48.9,45.3z"/>
		</g>
	</g>
</g>
</svg>
