<?xml version="1.0" encoding="utf-8"?>
<!-- Generator: Adobe Illustrator 21.0.1, SVG Export Plug-In . SVG Version: 6.00 Build 0)  -->
<svg version="1.1" id="Слой_1" xmlns="http://www.w3.org/2000/svg" xmlns:xlink="http://www.w3.org/1999/xlink" x="0px" y="0px"
	 width="14px" height="20px" viewBox="0 0 14 20" style="enable-background:new 0 0 14 20;" xml:space="preserve">
<style type="text/css">
	.st0{fill:#FFFFFF;}
</style>
<path class="st0" d="M4,5c0,0.6-0.4,1-1,1C2.4,6,2,5.6,2,5c0-2.8,2.2-5,5-5s5,2.2,5,5c0,2.8,0,5,0,5c0,0.6-0.4,1-1,1
	c-0.6,0-1-0.4-1-1l0-5c0-1.7-1.3-3-3-3S4,3.3,4,5"/>
<path class="st0" d="M14,20H0V9l14,0V20z M12,18v-7L2,11v7H12"/>
<path class="st0" d="M7,16c-0.6,0-1-0.4-1-1v-1c0-0.6,0.4-1,1-1s1,0.4,1,1v1C8,15.6,7.6,16,7,16z"/>
</svg>
