<?xml version="1.0" encoding="utf-8"?>
<!-- Generator: Adobe Illustrator 21.0.1, SVG Export Plug-In . SVG Version: 6.00 Build 0)  -->
<svg version="1.1" id="Слой_1" xmlns="http://www.w3.org/2000/svg" xmlns:xlink="http://www.w3.org/1999/xlink" x="0px" y="0px"
	 width="81px" height="58px" viewBox="0 0 81 58" style="enable-background:new 0 0 81 58;" xml:space="preserve">
<style type="text/css">
	.st0{fill:#F79341;}
	.st1{fill:none;stroke:#F79341;stroke-width:2;stroke-linecap:round;stroke-linejoin:round;stroke-miterlimit:10;}
</style>
<path class="st0" d="M1,57h1V2h35v40H24c-0.3,0-0.5,0.1-0.7,0.3C23.1,42.5,23,42.7,23,43v13H1V57h1H1v1h23c0.3,0,0.5-0.1,0.7-0.3
	s0.2-0.4,0.2-0.7V44h13c0.3,0,0.5-0.1,0.7-0.3s0.3-0.4,0.3-0.7V1c0-0.3-0.1-0.5-0.3-0.7C38.5,0.1,38.3,0,38,0H1
	C0.7,0,0.5,0.1,0.3,0.3S0,0.7,0,1v56c0,0.3,0.1,0.5,0.3,0.7S0.7,58,1,58V57z"/>
<path class="st0" d="M36.3,43.3l-13,13c-0.4,0.4-0.4,1,0,1.4s1,0.4,1.4,0l13-13c0.4-0.4,0.4-1,0-1.4C37.3,42.9,36.7,42.9,36.3,43.3"
	/>
<path class="st0" d="M48,23H1c-0.5,0-1-0.4-1-1l0,0c0-0.5,0.4-1,1-1h47c0.5,0,1,0.4,1,1l0,0C49,22.6,48.6,23,48,23z"/>
<path class="st0" d="M80,23H62c-0.5,0-1-0.4-1-1l0,0c0-0.5,0.4-1,1-1h18c0.5,0,1,0.4,1,1l0,0C81,22.6,80.6,23,80,23z"/>
<path class="st0" d="M70,31V13c0-0.5,0.4-1,1-1l0,0c0.5,0,1,0.4,1,1v18c0,0.5-0.4,1-1,1l0,0C70.4,32,70,31.6,70,31z"/>
<path class="st0" d="M43,2h-6c-0.5,0-1-0.4-1-1l0,0c0-0.5,0.5-1,1-1h6c0.5,0,1,0.4,1,1l0,0C44,1.6,43.5,2,43,2z"/>
<path class="st0" d="M43,57L43,57c-0.5,0-1-0.5-1-1V1c0-0.5,0.5-1,1-1l0,0c0.5,0,1,0.4,1,1v55C44,56.5,43.5,57,43,57z"/>
<path class="st0" d="M43,58H22c-0.5,0-1-0.5-1-1l0,0c0-0.5,0.4-1,1-1h21c0.5,0,1,0.5,1,1l0,0C44,57.5,43.5,58,43,58z"/>
<path class="st0" d="M48,2h-6c-0.5,0-1-0.4-1-1l0,0c0-0.5,0.5-1,1-1h6c0.5,0,1,0.4,1,1l0,0C49,1.6,48.5,2,48,2z"/>
<path class="st0" d="M48,57L48,57c-0.5,0-1-0.5-1-1V1c0-0.5,0.5-1,1-1l0,0c0.5,0,1,0.4,1,1v55C49,56.5,48.5,57,48,57z"/>
<path class="st0" d="M48,58H27c-0.5,0-1-0.5-1-1l0,0c0-0.5,0.4-1,1-1h21c0.5,0,1,0.5,1,1l0,0C49,57.5,48.5,58,48,58z"/>
<path class="st1" d="M17.1,22c0,0-3-15-9-6c-3.6,5.3,20,6,17,16"/>
<path class="st1" d="M16,22c0,0,3-15,9-6c3.6,5.3-20,6-17,16"/>
</svg>
