<?xml version="1.0" encoding="utf-8"?>
<!-- Generator: Adobe Illustrator 21.1.0, SVG Export Plug-In . SVG Version: 6.00 Build 0)  -->
<svg version="1.1" id="layer" xmlns="http://www.w3.org/2000/svg" xmlns:xlink="http://www.w3.org/1999/xlink" x="0px" y="0px"
	 width="23px" height="48px" viewBox="0 0 23 48" style="enable-background:new 0 0 23 48;" xml:space="preserve">
<style type="text/css">
	.st0{fill:#FF913C;}
</style>
<path class="st0" d="M0,22V9c0-0.6,0.4-1,1-1h9.9c0.6,0,1,0.4,1,1v13c0,0.6-0.4,1-1,1H1C0.4,23,0,22.6,0,22z M1,40c-0.6,0-1-0.4-1-1
	V26c0-0.6,0.4-1,1-1h9.9c0.6,0,1,0.4,1,1v13c0,0.6-0.4,1-1,1H1z"/>
<g>
	<path class="st0" d="M23,45V3c0-1.7-1.5-2.8-3.2-2.8h-15C3.1,0.2,2,1.3,2,3v3h9c1.8,0,3,1.3,3,3v30c0,1.7-1.3,3-3,3H2v3
		c0,1.7,1.3,3,3,3h15C21.7,48,23,46.7,23,45z"/>
</g>
</svg>
