<?xml version="1.0" encoding="utf-8"?>
<!-- Generator: Adobe Illustrator 21.1.0, SVG Export Plug-In . SVG Version: 6.00 Build 0)  -->
<svg version="1.1" id="layer" xmlns="http://www.w3.org/2000/svg" xmlns:xlink="http://www.w3.org/1999/xlink" x="0px" y="0px"
	 width="28px" height="30px" viewBox="0 0 28 30" style="enable-background:new 0 0 28 30;" xml:space="preserve">
<style type="text/css">
	.st0{fill:#FF913C;}
</style>
<path class="st0" d="M4,27V3c0-1.7,1.3-3,3-3h14c1.7,0,3,1.3,3,3v24c0,1.7-1.3,3-3,3H7C5.3,30,4,28.7,4,27z"/>
<path class="st0" d="M23,12c0-0.6,0.4-1,1-1c1.1,0,2-1.1,2-2.5S25.1,6,24,6c-0.6,0-1-0.4-1-1s0.4-1,1-1c2.2,0,4,2,4,4.5
	S26.2,13,24,13C23.4,13,23,12.6,23,12z"/>
<path class="st0" d="M0,8.5C0,6,1.8,4,4,4c0.6,0,1,0.4,1,1S4.6,6,4,6C2.9,6,2,7.1,2,8.5S2.9,11,4,11c0.6,0,1,0.4,1,1s-0.4,1-1,1
	C1.8,13,0,11,0,8.5z"/>
<path class="st0" d="M0,21.5C0,19,1.8,17,4,17c0.6,0,1,0.4,1,1s-0.4,1-1,1c-1.1,0-2,1.1-2,2.5S2.9,24,4,24c0.6,0,1,0.4,1,1
	s-0.4,1-1,1C1.8,26,0,24,0,21.5z"/>
<path class="st0" d="M23,25c0-0.6,0.4-1,1-1c1.1,0,2-1.1,2-2.5S25.1,19,24,19c-0.6,0-1-0.4-1-1s0.4-1,1-1c2.2,0,4,2,4,4.5
	S26.2,26,24,26C23.4,26,23,25.6,23,25z"/>
</svg>
