<?xml version="1.0" encoding="utf-8"?>
<!-- Generator: Adobe Illustrator 21.1.0, SVG Export Plug-In . SVG Version: 6.00 Build 0)  -->
<svg version="1.1" id="layer" xmlns="http://www.w3.org/2000/svg" xmlns:xlink="http://www.w3.org/1999/xlink" x="0px" y="0px"
	 width="35px" height="35px" viewBox="0 0 35 35" style="enable-background:new 0 0 35 35;" xml:space="preserve">
<style type="text/css">
	.st0{fill:#FF913C;}
</style>
<path class="st0" d="M30.3,21.8c-0.2-0.2-0.3-0.4-0.3-0.7c0-0.6,0.4-1,1-1c1.1,0,2-1.1,2-2.5c0.1-0.8-0.2-1.5-0.7-2
	C32,15.3,31.6,15,31,15s-1-0.4-1-1s0.4-1,1-1c1,0,2,0.4,2.8,1.2c0.8,0.8,1.3,2.1,1.3,3.4c0,2.4-1.8,4.5-4,4.5
	C30.7,22.1,30.5,22,30.3,21.8z"/>
<path class="st0" d="M1.3,20.8L1.3,20.8C0.4,19.9,0,18.6,0,17.4c0-2.4,1.8-4.5,4-4.5c0.6,0,1,0.4,1,1s-0.4,1-1,1c-1.1,0-2,1.1-2,2.5
	c0,0.8,0.3,1.6,0.8,2.1C3,19.7,3.4,20,4,20c0.6,0,1,0.4,1,1s-0.4,1-1,1C3,22,2.1,21.6,1.3,20.8z"/>
<path class="st0" d="M14,33.6c-0.7-0.7-1.1-1.6-1.1-2.6c0-0.6,0.4-1,1-1c0.6,0,1,0.4,1,1c0,0.7,0.4,1.1,0.7,1.4
	c0.5,0.4,1.2,0.6,1.8,0.6c0.8,0.1,1.5-0.2,2-0.7c0.3-0.3,0.6-0.7,0.6-1.3s0.4-1,1-1s1,0.4,1,1c0,1-0.4,2-1.2,2.8
	c-0.8,0.8-2.1,1.3-3.4,1.3C16,35,14.8,34.5,14,33.6z"/>
<path class="st0" d="M13.3,4.7C13.1,4.5,13,4.3,13,4c0-1,0.4-2,1.2-2.8C15.1,0.4,16.4,0,17.6,0c2.5,0.1,4.5,1.8,4.5,4
	c0,0.6-0.4,1-1,1s-1-0.4-1-1c-0.1-1.2-1.4-1.8-2.6-1.9c-0.8-0.1-1.5,0.2-2,0.7C15.3,3,15,3.4,15,4c0,0.6-0.4,1-1,1
	C13.7,5,13.5,4.9,13.3,4.7z"/>
<path class="st0" d="M8,27c-2.5-2.5-4-5.9-3.9-9.5C4,10.1,10.1,4,17.5,4.1l0,0c7.4-0.1,13.5,6,13.4,13.4c0,7.5-6,13.5-13.5,13.5
	C13.9,31,10.5,29.6,8,27z"/>
</svg>
