<?xml version="1.0" encoding="iso-8859-1"?>
<!-- Generator: Adobe Illustrator 20.1.0, SVG Export Plug-In . SVG Version: 6.00 Build 0)  -->
<svg version="1.1" xmlns="http://www.w3.org/2000/svg" xmlns:xlink="http://www.w3.org/1999/xlink" x="0px" y="0px" width="3000px"
	 height="1405px" viewBox="0 0 3000 1405" style="enable-background:new 0 0 3000 1405;" xml:space="preserve">
<g id="_x34_" style="opacity:0.8;">
	<path style="fill:#1B1A1B;" d="M0.333,0v1405h3000V0H0.333z M1504,884l-39-1l-3,13h-21.667v-15l-37-1v-3H1397l3-45h5l4.333-28v-35
		l1.667-6h5l-4-190l2-19l5-3l2-31l4-2l3-33l4-3l2.167-34l5.167-4v-29l5-3v-19l2.833-3l3.083-14l77.083,3v15h4v206l-3,1v39h-3v13
		L1516,728h-3.667v22l-3.167,33l1.917,1L1510,815h10.333v17l-2.333,8h-7l-2,13h4l-2,23h-3l2-20h-2L1504,884z"/>
</g>
<g id="&#x421;&#x43B;&#x43E;&#x439;_1">
</g>
</svg>
