<?xml version="1.0" encoding="iso-8859-1"?>
<!-- Generator: Adobe Illustrator 20.1.0, SVG Export Plug-In . SVG Version: 6.00 Build 0)  -->
<svg version="1.1" xmlns="http://www.w3.org/2000/svg" xmlns:xlink="http://www.w3.org/1999/xlink" x="0px" y="0px" width="3000px"
	 height="1405px" viewBox="0 0 3000 1405" style="enable-background:new 0 0 3000 1405;" xml:space="preserve">
<g id="_x37_" style="opacity:0.8;">
	<path style="fill:#1B1A1B;" d="M0.333,0v1405h3000V0H0.333z M1168,1058h-6.667v4H1120l-1.667-2v-4h-4v9l-5.333,6h-8.667v-6l-8-1v4
		l-7.166-0.66c-3-3.66-6.084-3.34-9.084-3.34s-4.042,2-4.042,2s-1.858-2-5.021-2c-4,0-11.01,0.604-11.01,0.604l-17.005-1.604
		l0.995-12h-15l-26-253l33-95l47,1l4.167-11l42.167,2v11l51.833,2l14.917,251L1168,1058z"/>
</g>
<g id="&#x421;&#x43B;&#x43E;&#x439;_1">
</g>
</svg>
