<?xml version="1.0" encoding="UTF-8"?>
<svg width="7px" height="7px" viewBox="0 0 7 7" version="1.1" xmlns="http://www.w3.org/2000/svg" xmlns:xlink="http://www.w3.org/1999/xlink">
    <!-- Generator: Sketch 42 (36781) - http://www.bohemiancoding.com/sketch -->
    <title>Shape</title>
    <desc>Created with Sketch.</desc>
    <defs></defs>
    <g id="Page-1" stroke="none" stroke-width="1" fill="none" fill-rule="evenodd">
        <g id="0_control" transform="translate(-29.000000, -7.000000)" fill-rule="nonzero" fill="#FFFFFF">
            <polygon id="Shape" points="36 7.7 35.3 7 32.5 9.8 29.7 7 29 7.7 31.8 10.5 29 13.3 29.7 14 32.5 11.2 35.3 14 36 13.3 33.2 10.5"></polygon>
        </g>
    </g>
</svg>