<?xml version="1.0" encoding="utf-8"?>
<!-- Generator: Adobe Illustrator 21.0.1, SVG Export Plug-In . SVG Version: 6.00 Build 0)  -->
<svg version="1.1" id="layer" xmlns="http://www.w3.org/2000/svg" xmlns:xlink="http://www.w3.org/1999/xlink" x="0px" y="0px"
	 width="57px" height="25px" viewBox="0 0 57 25" style="enable-background:new 0 0 57 25;" xml:space="preserve">
<style type="text/css">
	.st0{fill:#FF913C;}
</style>
<path class="st0" d="M19,25H9c-0.6,0-1-0.4-1-1V12c0-0.6,0.4-1,1-1h10c0.6,0,1,0.4,1,1v12C20,24.6,19.6,25,19,25z M34,25H23
	c-0.6,0-1-0.4-1-1V12c0-0.6,0.4-1,1-1h11c0.6,0,1,0.4,1,1v12C35,24.6,34.6,25,34,25z M49,24c0,0.6-0.4,1-1,1H38c-0.6,0-1-0.4-1-1V12
	c0-0.6,0.4-1,1-1h10c0.6,0,1,0.4,1,1V24z"/>
<g>
	<path class="st0" d="M48,11H38c-0.6,0-1,0.4-1,1v9h12v-9C49,11.4,48.6,11,48,11z"/>
	<path class="st0" d="M34,11H23c-0.6,0-1,0.4-1,1v9h13v-9C35,11.4,34.6,11,34,11z"/>
	<path class="st0" d="M19,11H9c-0.6,0-1,0.4-1,1v9h12v-9C20,11.4,19.6,11,19,11z"/>
	<path class="st0" d="M54,0H3C1.3,0,0,1.3,0,3v16c0,1.7,1.3,3,3,3h3V12c0-1.7,1.3-3,3-3h10c0.8,0,1.5,0.3,2,0.8
		C21.5,9.3,22.2,9,23,9h11c0.8,0,1.5,0.3,2,0.8C36.5,9.3,37.2,9,38,9h10c1.7,0,3,1.3,3,3v10h3c1.7,0,3-1.3,3-3V3C57,1.3,55.7,0,54,0
		z"/>
</g>
</svg>
