<?xml version="1.0" encoding="utf-8"?>
<!-- Generator: Adobe Illustrator 20.1.0, SVG Export Plug-In . SVG Version: 6.00 Build 0)  -->
<svg version="1.1" id="Layer_1" xmlns="http://www.w3.org/2000/svg" xmlns:xlink="http://www.w3.org/1999/xlink" x="0px" y="0px"
	 width="68px" height="58px" viewBox="0 0 68 58" style="enable-background:new 0 0 68 58;" xml:space="preserve">
<style type="text/css">
	.st0{fill:none;stroke:#AD2965;stroke-width:2;stroke-linecap:round;stroke-linejoin:round;stroke-miterlimit:10;}
</style>
<line class="st0" x1="8.5" y1="46.5" x2="60.5" y2="46.5"/>
<line class="st0" x1="8.5" y1="50.5" x2="60.5" y2="50.5"/>
<path class="st0" d="M38.5,26.5c0,5-4,9-9,9s-9-4-9-9c0-10,4-20,9-20S38.5,16.5,38.5,26.5z"/>
<path class="st0" d="M23.6,33.5c-1.3,1.2-3.1,2-5.1,2c-4.1,0-7.4-3.3-7.4-7.4c0-8.3,3.3-16.6,7.4-16.6c1.5,0,2.8,1.1,4,2.8"/>
<line class="st0" x1="29.5" y1="31.5" x2="29.5" y2="46.5"/>
<line class="st0" x1="18.5" y1="33.5" x2="18.5" y2="46.5"/>
<path class="st0" d="M58.5,34.5c0,2.2-1.8,4-4,4s-4-1.8-4-4c0-4.5,1.8-9,4-9C56.7,25.5,58.5,30,58.5,34.5z"/>
<line class="st0" x1="54.6" y1="36.5" x2="54.6" y2="46.5"/>
<polyline class="st0" points="49.5,46.5 49.5,42.5 33.5,42.5 33.5,46.5 "/>
<polyline class="st0" points="47.5,42.5 47.5,38.5 35.5,38.5 35.5,42.5 "/>
<path class="st0" d="M29.5,46.5c0-2.8-2.2-5-5-5c-0.6,0-1.2,0.1-1.8,0.3c-1.3-1.4-3.1-2.3-5.2-2.3c-3.9,0-7,3.1-7,7"/>
</svg>
