<?xml version="1.0" encoding="utf-8"?>
<!-- Generator: Adobe Illustrator 20.1.0, SVG Export Plug-In . SVG Version: 6.00 Build 0)  -->
<svg version="1.1" id="Layer_1" xmlns="http://www.w3.org/2000/svg" xmlns:xlink="http://www.w3.org/1999/xlink" x="0px" y="0px"
	 width="68px" height="58px" viewBox="0 0 68 58" style="enable-background:new 0 0 68 58;" xml:space="preserve">
<style type="text/css">
	.st0{fill:none;stroke:#AD2965;stroke-width:2;stroke-linecap:round;stroke-linejoin:round;stroke-miterlimit:10;}
</style>
<circle class="st0" cx="34" cy="29" r="13"/>
<line class="st0" x1="34" y1="3" x2="34" y2="12"/>
<line class="st0" x1="34" y1="46" x2="34" y2="55"/>
<line class="st0" x1="60" y1="29" x2="51" y2="29"/>
<line class="st0" x1="17" y1="29" x2="8" y2="29"/>
<line class="st0" x1="25.5" y1="43.7" x2="22.5" y2="48.9"/>
<line class="st0" x1="45.5" y1="9.1" x2="42.5" y2="14.3"/>
<line class="st0" x1="42.5" y1="43.7" x2="45.5" y2="48.9"/>
<line class="st0" x1="22.5" y1="9.1" x2="25.5" y2="14.3"/>
<line class="st0" x1="48.7" y1="37.5" x2="53.9" y2="40.5"/>
<line class="st0" x1="14.1" y1="17.5" x2="19.3" y2="20.5"/>
<line class="st0" x1="48.7" y1="20.5" x2="53.9" y2="17.5"/>
<line class="st0" x1="14.1" y1="40.5" x2="19.3" y2="37.5"/>
<circle class="st0" cx="34" cy="29" r="9"/>
<circle class="st0" cx="34" cy="29" r="5"/>
</svg>
