<?xml version="1.0" encoding="utf-8"?>
<!-- Generator: Adobe Illustrator 20.1.0, SVG Export Plug-In . SVG Version: 6.00 Build 0)  -->
<svg version="1.1" id="Layer_1" xmlns="http://www.w3.org/2000/svg" xmlns:xlink="http://www.w3.org/1999/xlink" x="0px" y="0px"
	 width="30px" height="60px" viewBox="0 0 30 60" style="enable-background:new 0 0 30 60;" xml:space="preserve">
<style type="text/css">
	.st0{fill:#636061;}
	.st1{fill:#3B5998;}
</style>
<path class="st0" d="M15,2c7.2,0,13,5.8,13,13s-5.8,13-13,13S2,22.2,2,15S7.8,2,15,2 M15,0C6.7,0,0,6.7,0,15s6.7,15,15,15
	s15-6.7,15-15S23.3,0,15,0L15,0z"/>
<g id="iy4xcJ.tif">
	<g>
		<path class="st0" d="M15.8,22c-0.9,0-1.7,0-2.6,0c0-2.2,0-4.3,0-6.5c-0.6,0-1.2,0-1.7,0c0-0.7,0-1.5,0-2.2c0.6,0,1.2,0,1.7,0
			c0-0.2,0-0.3,0-0.5c0-0.5,0-1.1,0.1-1.6c0.2-1.2,0.9-1.9,2-2.2c0.2,0,0.3-0.1,0.5-0.1c0.7,0,1.4,0,2.1,0c0,0.7,0,1.4,0,2.2
			c-0.2,0-0.4,0-0.5,0c-0.3,0-0.7,0-1,0c-0.4,0-0.6,0.3-0.6,0.7c0,0.3,0,0.6,0,0.9c0,0.2,0,0.4,0,0.6c0.7,0,1.5,0,2.2,0
			c0,0,0,0.1,0,0.1c0,0.2-0.1,0.3-0.1,0.5c-0.1,0.5-0.1,1-0.2,1.6c-0.6,0-1.3,0-1.9,0C15.8,17.7,15.8,19.8,15.8,22z"/>
	</g>
</g>
<path class="st1" d="M15,32c7.2,0,13,5.8,13,13s-5.8,13-13,13S2,52.2,2,45S7.8,32,15,32 M15,30C6.7,30,0,36.7,0,45s6.7,15,15,15
	s15-6.7,15-15S23.3,30,15,30L15,30z"/>
<g id="iy4xcJ.tif_1_">
	<g>
		<path class="st1" d="M15.8,52c-0.9,0-1.7,0-2.6,0c0-2.2,0-4.3,0-6.5c-0.6,0-1.2,0-1.7,0c0-0.7,0-1.4,0-2.2c0.6,0,1.2,0,1.7,0
			c0-0.2,0-0.3,0-0.5c0-0.5,0-1.1,0.1-1.6c0.2-1.2,0.9-1.9,2-2.2c0.2,0,0.3-0.1,0.5-0.1c0.7,0,1.4,0,2.1,0c0,0.7,0,1.5,0,2.2
			c-0.2,0-0.4,0-0.5,0c-0.3,0-0.7,0-1,0c-0.4,0-0.6,0.3-0.6,0.7c0,0.3,0,0.6,0,0.9c0,0.2,0,0.4,0,0.6c0.7,0,1.5,0,2.2,0
			c0,0,0,0.1,0,0.1c0,0.2-0.1,0.3-0.1,0.5c-0.1,0.5-0.1,1-0.2,1.6c-0.6,0-1.3,0-1.9,0C15.8,47.7,15.8,49.8,15.8,52z"/>
	</g>
</g>
</svg>
