<?xml version="1.0" encoding="utf-8"?>
<!-- Generator: Adobe Illustrator 20.1.0, SVG Export Plug-In . SVG Version: 6.00 Build 0)  -->
<svg version="1.1" id="Layer_1" xmlns="http://www.w3.org/2000/svg" xmlns:xlink="http://www.w3.org/1999/xlink" x="0px" y="0px"
	 width="854px" height="586px" viewBox="0 0 854 586" style="enable-background:new 0 0 854 586;" xml:space="preserve">
<style type="text/css">
	.st0{fill:#C7C7C7;}
	.st1{fill:#292929;}
</style>
<g id="Layer_1_1_">
</g>
<g id="Layer_2">
	<g>
		<rect y="584" class="st0" width="854" height="2"/>
	</g>
	<g>
		<rect x="226" y="37" class="st0" width="2" height="549"/>
	</g>
	<g>
		<rect x="67" y="36" class="st0" width="160" height="2"/>
	</g>
	<g>
		<rect x="277" y="36" class="st0" width="220" height="2"/>
	</g>
	<g>
		<rect x="547" y="36" class="st0" width="220" height="2"/>
	</g>
	<g>
		<rect x="66" y="36" class="st0" width="2" height="550"/>
	</g>
	<g>
		<rect x="276" y="36" class="st0" width="2" height="550"/>
	</g>
	<g>
		<rect x="496" y="36" class="st0" width="2" height="550"/>
	</g>
	<g>
		<rect x="546" y="36" class="st0" width="2" height="550"/>
	</g>
	<g>
		<rect x="766" y="36" class="st0" width="2" height="550"/>
	</g>
	<g>
		<g>
			<g>
				<g>
					<path class="st0" d="M538.6,586c-0.2,0-0.4-0.1-0.6-0.3c-0.3-0.3-0.3-0.8,0.1-1.1c1.7-1.6,2.7-3.8,2.7-6.2
						c0-4.6-3.7-8.3-8.4-8.3c-1.5,0-2.9,0.4-4.1,1.1c-0.4,0.2-0.9,0.1-1.1-0.3c-0.2-0.4-0.1-0.9,0.3-1.1c1.5-0.8,3.2-1.3,4.9-1.3
						c5.5,0,9.9,4.5,9.9,9.9c0,2.8-1.2,5.5-3.3,7.4C539,585.9,538.8,586,538.6,586z"/>
				</g>
				<g>
					<path class="st0" d="M530.3,586c-0.1,0-0.2,0-0.2,0c-0.4-0.1-0.6-0.6-0.5-1l2.1-6.8c0.1-0.4,0.6-0.7,1-0.5
						c0.4,0.1,0.6,0.6,0.5,1l-2.1,6.8C531,585.8,530.7,586,530.3,586z"/>
				</g>
			</g>
			<g>
				<g>
					<path class="st0" d="M524.1,586c-0.2,0-0.5-0.1-0.6-0.3c-0.3-0.4-0.2-0.8,0.2-1.1s0.8-0.6,1.1-1c2.2-2.1,3.4-5,3.4-8.1
						c0-1.6-0.3-3.2-1-4.7c-1.8-4-5.9-6.7-10.3-6.7c-4.4,0-8.5,2.6-10.3,6.7c-0.7,1.5-1,3-1,4.7c0,3.1,1.2,6,3.4,8.1
						c0.4,0.4,0.7,0.7,1.2,1c0.4,0.3,0.4,0.8,0.2,1.1c-0.3,0.4-0.8,0.4-1.1,0.2c-0.5-0.3-0.9-0.7-1.3-1.1c-2.5-2.4-3.9-5.7-3.9-9.2
						c0-1.8,0.4-3.6,1.1-5.3c2.1-4.6,6.7-7.6,11.7-7.6c5.1,0,9.7,3,11.7,7.6c0.8,1.7,1.1,3.5,1.1,5.3c0,3.5-1.4,6.8-3.9,9.3
						c-0.4,0.4-0.9,0.8-1.3,1.1C524.4,585.9,524.2,586,524.1,586z"/>
				</g>
				<g>
					<g>
						<path class="st0" d="M516.9,585.8c-0.4,0-0.8-0.4-0.8-0.8v-12.8c0-0.4,0.4-0.8,0.8-0.8c0.4,0,0.8,0.4,0.8,0.8V585
							C517.7,585.5,517.3,585.8,516.9,585.8z"/>
					</g>
					<g>
						<path class="st0" d="M516.9,584.9c-0.3,0-0.5-0.1-0.7-0.4l-5-7.7c-0.2-0.4-0.1-0.9,0.2-1.1c0.4-0.2,0.9-0.1,1.1,0.2l5,7.7
							c0.2,0.4,0.1,0.9-0.2,1.1C517.2,584.9,517,584.9,516.9,584.9z"/>
					</g>
					<g>
						<path class="st0" d="M516.9,584.9c-0.1,0-0.3,0-0.4-0.1c-0.4-0.2-0.5-0.7-0.2-1.1l5-7.7c0.2-0.4,0.7-0.5,1.1-0.2
							c0.4,0.2,0.5,0.7,0.2,1.1l-5,7.7C517.4,584.8,517.1,584.9,516.9,584.9z"/>
					</g>
				</g>
			</g>
		</g>
		<g>
			<path class="st0" d="M552.5,585.2"/>
		</g>
	</g>
	<g>
		<g>
			<g>
				<g>
					<path class="st0" d="M17,586c0.2,0,0.4-0.1,0.6-0.3c0.3-0.3,0.3-0.8-0.1-1.1c-1.7-1.6-2.7-3.8-2.7-6.2c0-4.6,3.7-8.3,8.4-8.3
						c1.5,0,2.9,0.4,4.1,1.1c0.4,0.2,0.9,0.1,1.1-0.3c0.2-0.4,0.1-0.9-0.3-1.1c-1.5-0.8-3.2-1.3-4.9-1.3c-5.5,0-9.9,4.5-9.9,9.9
						c0,2.8,1.2,5.5,3.3,7.4C16.6,585.9,16.8,586,17,586z"/>
				</g>
				<g>
					<path class="st0" d="M25.2,586c0.1,0,0.2,0,0.2,0c0.4-0.1,0.6-0.6,0.5-1l-2.1-6.8c-0.1-0.4-0.6-0.7-1-0.5
						c-0.4,0.1-0.6,0.6-0.5,1l2.1,6.8C24.6,585.8,24.9,586,25.2,586z"/>
				</g>
			</g>
			<g>
				<g>
					<path class="st0" d="M31.5,586c0.2,0,0.5-0.1,0.6-0.3c0.3-0.4,0.2-0.8-0.2-1.1c-0.4-0.3-0.8-0.6-1.1-1c-2.2-2.1-3.4-5-3.4-8.1
						c0-1.6,0.3-3.2,1-4.7c1.8-4,5.9-6.7,10.3-6.7s8.5,2.6,10.3,6.7c0.7,1.5,1,3,1,4.7c0,3.1-1.2,6-3.4,8.1c-0.4,0.4-0.7,0.7-1.2,1
						c-0.4,0.3-0.4,0.8-0.2,1.1c0.3,0.4,0.8,0.4,1.1,0.2c0.5-0.3,0.9-0.7,1.3-1.1c2.5-2.4,3.9-5.7,3.9-9.2c0-1.8-0.4-3.6-1.1-5.3
						c-2.1-4.6-6.7-7.6-11.7-7.6c-5.1,0-9.7,3-11.7,7.6c-0.8,1.7-1.1,3.5-1.1,5.3c0,3.5,1.4,6.8,3.9,9.3c0.4,0.4,0.9,0.8,1.3,1.1
						C31.1,585.9,31.3,586,31.5,586z"/>
				</g>
				<g>
					<g>
						<path class="st0" d="M38.6,585.8c0.4,0,0.8-0.4,0.8-0.8v-12.8c0-0.4-0.4-0.8-0.8-0.8c-0.4,0-0.8,0.4-0.8,0.8V585
							C37.9,585.5,38.2,585.8,38.6,585.8z"/>
					</g>
					<g>
						<path class="st0" d="M38.6,584.9c0.3,0,0.5-0.1,0.7-0.4l5-7.7c0.2-0.4,0.1-0.9-0.2-1.1c-0.4-0.2-0.9-0.1-1.1,0.2l-5,7.7
							c-0.2,0.4-0.1,0.9,0.2,1.1C38.3,584.9,38.5,584.9,38.6,584.9z"/>
					</g>
					<g>
						<path class="st0" d="M38.6,584.9c0.1,0,0.3,0,0.4-0.1c0.4-0.2,0.5-0.7,0.2-1.1l-5-7.7c-0.2-0.4-0.7-0.5-1.1-0.2
							c-0.4,0.2-0.5,0.7-0.2,1.1l5,7.7C38.1,584.8,38.4,584.9,38.6,584.9z"/>
					</g>
				</g>
			</g>
		</g>
		<g>
			<path class="st0" d="M3,585.2"/>
		</g>
	</g>
	<g>
		<g>
			<g>
				<g>
					<path class="st0" d="M244.5,586c0.2,0,0.5-0.1,0.6-0.3c0.3-0.4,0.2-0.8-0.2-1.1s-0.8-0.6-1.1-1c-2.2-2.1-3.4-5-3.4-8.1
						c0-1.6,0.3-3.2,1-4.7c1.8-4,5.9-6.7,10.3-6.7c4.4,0,8.5,2.6,10.3,6.7c0.7,1.5,1,3,1,4.7c0,3.1-1.2,6-3.4,8.1
						c-0.4,0.4-0.7,0.7-1.2,1c-0.4,0.3-0.4,0.8-0.2,1.1c0.3,0.4,0.8,0.4,1.1,0.2c0.5-0.3,0.9-0.7,1.3-1.1c2.5-2.4,3.9-5.7,3.9-9.2
						c0-1.8-0.4-3.6-1.1-5.3c-2.1-4.6-6.7-7.6-11.7-7.6c-5.1,0-9.7,3-11.7,7.6c-0.8,1.7-1.1,3.5-1.1,5.3c0,3.5,1.4,6.8,3.9,9.3
						c0.4,0.4,0.9,0.8,1.3,1.1C244.1,585.9,244.3,586,244.5,586z"/>
				</g>
				<g>
					<g>
						<path class="st0" d="M251.6,585.8c0.4,0,0.8-0.4,0.8-0.8v-12.8c0-0.4-0.4-0.8-0.8-0.8c-0.4,0-0.8,0.4-0.8,0.8V585
							C250.9,585.5,251.2,585.8,251.6,585.8z"/>
					</g>
					<g>
						<path class="st0" d="M251.6,584.9c0.3,0,0.5-0.1,0.7-0.4l5-7.7c0.2-0.4,0.1-0.9-0.2-1.1c-0.4-0.2-0.9-0.1-1.1,0.2l-5,7.7
							c-0.2,0.4-0.1,0.9,0.2,1.1C251.3,584.9,251.5,584.9,251.6,584.9z"/>
					</g>
					<g>
						<path class="st0" d="M251.6,584.9c0.1,0,0.3,0,0.4-0.1c0.4-0.2,0.5-0.7,0.2-1.1l-5-7.7c-0.2-0.4-0.7-0.5-1.1-0.2
							c-0.4,0.2-0.5,0.7-0.2,1.1l5,7.7C251.1,584.8,251.4,584.9,251.6,584.9z"/>
					</g>
				</g>
			</g>
		</g>
		<g>
			<path class="st0" d="M216,585.2"/>
		</g>
	</g>
	<g>
		<g>
			<g>
				<g>
					<path class="st0" d="M735,20.6c0.1-0.4-0.2-0.9-0.6-1c-0.4-0.1-0.9,0.2-1,0.6"/>
				</g>
			</g>
			<g>
				<g>
					<path class="st0" d="M741.8,20.6c0.1-0.4-0.2-0.9-0.6-1c-0.4-0.1-0.9,0.2-1,0.6"/>
				</g>
			</g>
			<g>
				<g>
					<path class="st0" d="M748.6,20.6c0.1-0.4-0.2-0.9-0.6-1c-0.4-0.1-0.9,0.2-1,0.6"/>
				</g>
			</g>
			<g>
				<g>
					<path class="st0" d="M755.4,20.6c0.1-0.4-0.2-0.9-0.6-1c-0.4-0.1-0.9,0.2-1,0.6"/>
				</g>
			</g>
			<g>
				<g>
					<path class="st0" d="M762.2,20.6c0.1-0.4-0.2-0.9-0.6-1c-0.4-0.1-0.9,0.2-1,0.6"/>
				</g>
			</g>
			<g>
				<g>
					<path class="st0" d="M769,20.6c0.1-0.4-0.2-0.9-0.6-1c-0.4-0.1-0.9,0.2-1,0.6"/>
				</g>
			</g>
			<g>
				<g>
					<path class="st0" d="M775.8,20.6c0.1-0.4-0.2-0.9-0.6-1c-0.4-0.1-0.9,0.2-1,0.6"/>
				</g>
			</g>
		</g>
		<g>
			<path class="st0" d="M727.1,21.3v-0.8c0-7,5.7-12.8,12.8-12.8c2.7,0,5.3,0.8,7.4,2.4C750,7.5,753.6,6,757.4,6
				c4.8,0,9.2,2.3,11.9,6.3c1.3-0.6,2.7-1,4.1-1c5.1,0,9.2,4.1,9.2,9.2v0.8 M773.4,12.9c-1.4,0-2.7,0.4-3.9,1.1l-0.7,0.4l-0.4-0.7
				c-2.4-3.9-6.5-6.2-11-6.2c-3.6,0-6.9,1.5-9.4,4.1l-0.5,0.5l-0.6-0.5c-2-1.6-4.4-2.5-7-2.5c-5.9,0-10.8,4.6-11.2,10.4h52.2
				C780.6,15.9,777.3,12.9,773.4,12.9z"/>
		</g>
	</g>
	<g>
		<path class="st0" d="M522.7,16.9h-22.1v-0.8c0-2.9,2.4-5.3,5.3-5.3c0.7,0,1.4,0.1,2.1,0.4c1.5-2.1,3.9-3.3,6.5-3.3
			c4.5,0,8.2,3.7,8.2,8.2V16.9z M502.3,15.4h18.8c-0.4-3.3-3.2-5.8-6.5-5.8c-2.3,0-4.4,1.2-5.6,3.1l-0.4,0.7l-0.7-0.4
			c-0.6-0.4-1.3-0.5-1.9-0.5C504.1,12.4,502.6,13.7,502.3,15.4z"/>
	</g>
	<g>
		<path class="st0" d="M40.2,11H1.4v-0.8c0-3.6,3-6.6,6.6-6.6c0.9,0,1.9,0.2,2.7,0.6c1.9-2.7,5-4.3,8.3-4.3c2.6,0,5.1,1,7,2.7
			c1.5-1,3.3-1.6,5.1-1.6c5,0,9.1,4.1,9.1,9.1V11z M3.1,9.4h35.5c-0.4-3.8-3.6-6.7-7.5-6.7c-1.7,0-3.3,0.6-4.7,1.7l-0.6,0.5
			l-0.5-0.5c-1.7-1.8-3.9-2.7-6.3-2.7c-3,0-5.8,1.5-7.4,4.1l-0.4,0.7L10.6,6C9.8,5.5,8.9,5.2,8,5.2C5.5,5.2,3.4,7.1,3.1,9.4z"/>
	</g>
	<g>
		<path class="st0" d="M66,19.4H43.9v-0.8c0-2.9,2.4-5.3,5.3-5.3c0.7,0,1.4,0.1,2.1,0.4c1.5-2.1,3.9-3.3,6.5-3.3
			c4.5,0,8.2,3.7,8.2,8.2V19.4z M45.6,17.9h18.8c-0.4-3.3-3.2-5.8-6.5-5.8c-2.3,0-4.4,1.2-5.6,3.1l-0.4,0.7l-0.7-0.4
			c-0.6-0.4-1.3-0.5-1.9-0.5C47.4,14.9,46,16.2,45.6,17.9z"/>
	</g>
	<g>
		<g>
			<g>
				<path class="st0" d="M798.5,577.2c-4.6,0-8.8-2.8-10.6-7c-4.2,0.1-7.6-3.3-7.6-7.5c0-1.9,0.7-3.6,1.9-5
					c-0.6-1.3-0.9-2.8-0.9-4.2c0-5.8,4.7-10.5,10.5-10.5c0.3,0,0.7,0,1.1,0.1c0.9-2.3,3.1-3.9,5.7-3.9c2.4,0,4.6,1.5,5.5,3.6
					c2.1-0.4,4.1,0.1,5.7,1.3c0.3,0.3,0.4,0.8,0.2,1.1c-0.3,0.3-0.8,0.4-1.1,0.2c-1.4-1.1-3.2-1.4-5-0.9l-0.8,0.2l-0.2-0.8
					c-0.6-1.9-2.3-3.2-4.3-3.2c-2.1,0-3.8,1.4-4.3,3.4l-0.2,0.7l-0.7-0.1c-0.6-0.1-1.1-0.1-1.5-0.1c-4.9,0-8.9,4-8.9,8.9
					c0,1.4,0.3,2.8,1,4l0.3,0.5l-0.4,0.4c-1.2,1.1-1.8,2.6-1.8,4.3c0,3.2,2.6,5.9,5.9,5.9c0.2,0,0.4,0,0.6,0l0.6-0.1l0.2,0.6
					c1.4,3.9,5.2,6.5,9.3,6.5c4.4,0,8.3-3,9.5-7.2l0.2-0.5h0.6c2.7-0.2,5.1-1.5,6.6-3.7c0.3-0.4,0.7-0.4,1.1-0.2
					c0.4,0.3,0.4,0.7,0.2,1.1c-1.7,2.4-4.3,4-7.2,4.3C807.8,574,803.4,577.2,798.5,577.2z"/>
			</g>
			<g>
				<path class="st0" d="M798.6,586c-0.4,0-0.8-0.4-0.8-0.8v-33.1c0-0.4,0.4-0.8,0.8-0.8c0.4,0,0.8,0.4,0.8,0.8v33.1
					C799.4,585.6,799,586,798.6,586z"/>
			</g>
			<g>
				<path class="st0" d="M798.6,563.5c-4.5,0-8.2-3.7-8.2-8.2c0-0.4,0.4-0.8,0.8-0.8s0.8,0.4,0.8,0.8c0,3.6,3,6.6,6.6,6.6
					c0.4,0,0.8,0.4,0.8,0.8C799.4,563.2,799,563.5,798.6,563.5z"/>
			</g>
			<g>
				<path class="st0" d="M798.6,568.9c-0.4,0-0.8-0.4-0.8-0.8c0-0.4,0.4-0.8,0.8-0.8c3.6,0,6.6-3,6.6-6.6c0-0.4,0.4-0.8,0.8-0.8
					c0.4,0,0.8,0.4,0.8,0.8C806.7,565.3,803.1,568.9,798.6,568.9z"/>
			</g>
		</g>
		<g>
			<g>
				<path class="st0" d="M831.4,571.8c-4.2,0-8.3-2-10.9-5.3c-0.2,0-0.4,0-0.6,0c-4.3,0-7.8-3.5-7.8-7.8c0-1.2,0.3-2.4,0.8-3.4
					c-2.8-1.9-4.5-5.1-4.5-8.5c0-5,3.6-9.2,8.4-10.1c0.9-3.5,4-6,7.6-6.2c1.1-2.2,3.3-3.6,5.8-3.6c2.4,0,4.6,1.3,5.7,3.4
					c5.5-0.7,10.4,3.7,10.4,9.1c0,0.9-0.1,1.8-0.4,2.7c3.7,1.6,6.2,5.3,6.2,9.4c0,4.4-2.9,8.4-7.1,9.8
					C843.4,567.4,837.7,571.8,831.4,571.8z M821.2,564.8l0.3,0.4c2.3,3.1,6,5,9.9,5c5.8,0,10.9-4.1,12.1-9.7l0.1-0.5l0.5-0.1
					c3.8-1,6.4-4.5,6.4-8.4c0-3.7-2.4-7-5.9-8.2l-0.8-0.3l0.3-0.8c0.4-0.9,0.6-1.9,0.6-2.9c0-4.2-3.4-7.6-7.6-7.6
					c-0.5,0-1,0.1-1.5,0.1l-0.6,0.1l-0.2-0.6c-0.7-1.8-2.5-3-4.5-3s-3.8,1.2-4.5,3.1l-0.2,0.5h-0.5l0,0c-3.3,0-6.1,2.3-6.7,5.5
					l-0.1,0.6l-0.6,0.1c-4.3,0.5-7.6,4.2-7.6,8.6c0,3.1,1.7,6,4.4,7.5l0.7,0.4l-0.4,0.7c-0.6,1-1,2.1-1,3.3c0,3.4,2.8,6.2,6.2,6.2
					c0.3,0,0.5,0,0.9-0.1L821.2,564.8z"/>
			</g>
			<g>
				<path class="st0" d="M830.2,586c-0.4,0-0.8-0.4-0.8-0.8v-50c0-0.4,0.4-0.8,0.8-0.8c0.4,0,0.8,0.4,0.8,0.8v50
					C831,585.6,830.6,586,830.2,586z"/>
			</g>
			<g>
				<path class="st0" d="M830.2,546c-3.9,0-7.1-3.2-7.1-7.1c0-0.4,0.4-0.8,0.8-0.8c0.4,0,0.8,0.4,0.8,0.8c0,3,2.5,5.5,5.5,5.5
					c0.4,0,0.8,0.4,0.8,0.8C831,545.7,830.6,546,830.2,546z"/>
			</g>
			<g>
				<path class="st0" d="M830.2,551.3c-0.4,0-0.8-0.4-0.8-0.8s0.4-0.8,0.8-0.8c3,0,5.5-2.5,5.5-5.5c0-0.4,0.4-0.8,0.8-0.8
					c0.4,0,0.8,0.4,0.8,0.8C837.3,548.1,834.1,551.3,830.2,551.3z"/>
			</g>
			<g>
				<path class="st0" d="M830.2,558.6c-7.4,0-13.4-6-13.4-13.4c0-0.4,0.4-0.8,0.8-0.8c0.4,0,0.8,0.4,0.8,0.8
					c0,6.5,5.3,11.8,11.8,11.8c0.4,0,0.8,0.4,0.8,0.8C831,558.3,830.6,558.6,830.2,558.6z"/>
			</g>
			<g>
				<path class="st0" d="M830.2,563.9c-0.4,0-0.8-0.4-0.8-0.8c0-0.4,0.4-0.8,0.8-0.8c6.5,0,11.8-5.3,11.8-11.8
					c0-0.4,0.4-0.8,0.8-0.8c0.4,0,0.8,0.4,0.8,0.8C843.6,557.9,837.6,563.9,830.2,563.9z"/>
			</g>
		</g>
	</g>
</g>
<g>
	<path class="st0" d="M22.2,543v-11.4l-1.9,1.4v-2.4l2.1-1.5h2.1V543H22.2z"/>
</g>
<g>
	<path class="st0" d="M18.7,502.7c0.1-1.2,0.5-2.1,1.1-2.8s1.5-1,2.6-1s2,0.3,2.7,0.9c0.6,0.6,1,1.5,1,2.6c0,0.5-0.1,1-0.2,1.5
		c-0.2,0.5-0.4,1-0.7,1.5l-3.6,5.4H26v2.1h-7.2v-2l4.5-6.7c0.2-0.3,0.3-0.6,0.4-0.9s0.1-0.6,0.1-0.9c0-0.4-0.1-0.7-0.3-1
		s-0.6-0.5-1-0.5s-0.7,0.2-1,0.5s-0.4,0.8-0.5,1.5L18.7,502.7z"/>
</g>
<g>
	<path class="st0" d="M24.6,475.8c0.4,0.2,0.6,0.4,0.9,0.6s0.4,0.5,0.5,0.8s0.2,0.6,0.2,0.9s0,0.7,0,1c0,0.6-0.1,1.2-0.2,1.7
		s-0.4,0.9-0.7,1.3c-0.3,0.4-0.7,0.6-1.2,0.8s-1,0.3-1.7,0.3c-0.5,0-0.9-0.1-1.4-0.2c-0.4-0.1-0.8-0.3-1.1-0.6
		c-0.3-0.3-0.6-0.6-0.8-1.1c-0.2-0.4-0.3-0.9-0.4-1.5l2.2-0.3c0.1,1.1,0.6,1.7,1.5,1.7c0.5,0,0.9-0.2,1.1-0.5
		c0.3-0.4,0.4-0.9,0.4-1.5c0-0.8-0.1-1.3-0.4-1.7c-0.3-0.4-0.7-0.6-1.3-0.6h-0.9V475h0.9c0.6,0,1-0.2,1.2-0.5s0.4-0.8,0.4-1.4
		c0-0.2,0-0.5-0.1-0.7c0-0.2-0.1-0.4-0.2-0.6s-0.2-0.3-0.4-0.4s-0.4-0.2-0.7-0.2c-0.4,0-0.8,0.1-1,0.4s-0.4,0.7-0.4,1.3
		c-0.1,0-0.3,0-0.5-0.1s-0.4-0.1-0.6-0.1s-0.4-0.1-0.6-0.1s-0.4-0.1-0.5-0.1c0.1-1.1,0.5-1.9,1.2-2.5s1.5-0.9,2.5-0.9
		c0.7,0,1.3,0.1,1.8,0.3c0.5,0.2,0.8,0.5,1.1,0.9c0.3,0.4,0.5,0.8,0.6,1.3s0.2,1,0.2,1.5c0,0.3,0,0.5-0.1,0.8c0,0.3-0.1,0.5-0.2,0.8
		s-0.3,0.5-0.5,0.7S24.9,475.6,24.6,475.8z"/>
</g>
<g>
	<path class="st0" d="M25.6,451v2h-2.2v-2h-5v-2l3.9-10h2.3l-3.8,9.8h2.6v-3.5h2.2v3.5h1v2.1h-1V451z"/>
</g>
<g>
	<path class="st0" d="M21.4,414.3c0.3-0.3,0.6-0.4,0.9-0.5s0.6-0.1,0.9-0.1c0.6,0,1.1,0.1,1.5,0.3c0.4,0.2,0.7,0.5,0.9,0.9
		s0.4,0.8,0.5,1.4c0.1,0.5,0.1,1.1,0.1,1.7c0,0.8-0.1,1.5-0.2,2.1s-0.3,1.2-0.6,1.6c-0.3,0.4-0.7,0.8-1.1,1
		c-0.5,0.2-1.1,0.3-1.8,0.3c-0.5,0-1-0.1-1.4-0.2s-0.8-0.3-1.1-0.6c-0.3-0.3-0.6-0.7-0.8-1.1c-0.2-0.5-0.3-1-0.3-1.7l2.2-0.1
		c0,0.6,0.2,1,0.4,1.3c0.2,0.3,0.6,0.4,1,0.4c0.3,0,0.6-0.1,0.8-0.2c0.2-0.2,0.3-0.4,0.4-0.7s0.2-0.6,0.2-0.9s0-0.7,0-1s0-0.6,0-0.9
		s-0.1-0.6-0.2-0.8c-0.1-0.2-0.2-0.4-0.4-0.6c-0.2-0.1-0.4-0.2-0.8-0.2c-0.3,0-0.5,0.1-0.8,0.2c-0.2,0.1-0.4,0.4-0.6,0.7h-2v-7.5H26
		v2.1h-4.7L21.4,414.3L21.4,414.3z"/>
</g>
<g>
	<path class="st0" d="M22.5,385c0.1-0.1,0.3-0.1,0.5-0.2c0.2,0,0.3,0,0.5,0c0.4,0,0.8,0.1,1.2,0.3s0.6,0.5,0.9,0.8
		c0.2,0.3,0.4,0.7,0.5,1.2s0.2,1,0.2,1.6c0,1.4-0.3,2.4-0.9,3.2c-0.6,0.8-1.5,1.2-2.8,1.2c-1.2,0-2.1-0.3-2.7-1S19,390.4,19,389
		c0-0.6,0.1-1.2,0.2-1.8s0.3-1,0.5-1.5c0.1-0.2,0.2-0.4,0.4-0.8s0.4-0.8,0.6-1.3s0.4-1,0.7-1.5c0.2-0.5,0.4-1,0.6-1.4
		s0.4-0.8,0.5-1.1c0.1-0.3,0.2-0.5,0.2-0.6H25c-0.1,0.2-0.2,0.4-0.3,0.7c-0.1,0.3-0.3,0.7-0.5,1c-0.2,0.4-0.3,0.8-0.5,1.2
		s-0.4,0.8-0.5,1.2c-0.2,0.4-0.3,0.7-0.5,1C22.6,384.6,22.5,384.8,22.5,385L22.5,385z M22.6,386.7c-0.3,0-0.5,0.1-0.7,0.2
		s-0.3,0.3-0.4,0.5s-0.2,0.4-0.2,0.7s-0.1,0.6-0.1,0.9c0,0.7,0.1,1.2,0.3,1.6c0.2,0.4,0.5,0.5,1.1,0.5c0.5,0,0.9-0.2,1.1-0.5
		c0.2-0.4,0.3-0.9,0.3-1.7c0-0.6-0.1-1.1-0.3-1.5C23.5,386.8,23.1,386.7,22.6,386.7z"/>
</g>
<g>
	<path class="st0" d="M21.9,363h-2.3l4.1-11.8H21v1.7h-2.1v-3.8h7.2v2L21.9,363z"/>
</g>
<g>
	<path class="st0" d="M26.3,329c0,0.8-0.1,1.4-0.3,1.9c-0.2,0.5-0.5,0.9-0.8,1.3c-0.4,0.3-0.8,0.6-1.2,0.7c-0.5,0.1-0.9,0.2-1.4,0.2
		s-1-0.1-1.4-0.2s-0.8-0.4-1.2-0.7c-0.3-0.3-0.6-0.8-0.8-1.3c-0.2-0.5-0.3-1.2-0.3-1.9c0-0.7,0.1-1.4,0.3-2s0.6-1,1.2-1.3l0,0
		c-0.6-0.3-0.9-0.7-1.1-1.2s-0.3-1-0.3-1.7c0-1.3,0.3-2.2,1-2.9c0.7-0.7,1.5-1,2.6-1c0.5,0,1,0.1,1.5,0.2s0.8,0.4,1.1,0.7
		c0.3,0.3,0.6,0.7,0.7,1.2c0.2,0.5,0.3,1.1,0.3,1.8c0,0.6-0.1,1.2-0.3,1.7c-0.2,0.5-0.5,0.9-1,1.2l0,0c0.3,0.1,0.5,0.3,0.7,0.5
		s0.3,0.5,0.4,0.8s0.2,0.6,0.2,0.9C26.3,328.3,26.3,328.7,26.3,329z M22.5,326.7c-0.5,0-0.9,0.2-1.1,0.5s-0.4,0.9-0.4,1.6
		c0,0.8,0.1,1.4,0.4,1.7c0.3,0.3,0.6,0.5,1.1,0.5s0.9-0.2,1.2-0.6c0.2-0.4,0.4-0.9,0.4-1.7C24.1,327.4,23.5,326.7,22.5,326.7z
		 M22.5,321.1c-0.5,0-0.8,0.2-1.1,0.5c-0.2,0.3-0.3,0.8-0.3,1.4c0,0.7,0.1,1.2,0.3,1.5c0.2,0.3,0.6,0.4,1,0.4c0.9,0,1.4-0.7,1.4-2
		c0-0.6-0.1-1-0.3-1.4C23.4,321.2,23,321.1,22.5,321.1z"/>
</g>
<g>
	<path class="st0" d="M22.6,297.1c-0.1,0.1-0.3,0.1-0.4,0.1c-0.2,0-0.3,0-0.5,0c-0.5,0-0.9-0.1-1.2-0.3c-0.4-0.2-0.6-0.5-0.9-0.8
		c-0.2-0.3-0.4-0.7-0.5-1.2s-0.2-1-0.2-1.6c0-0.7,0.1-1.3,0.2-1.8c0.1-0.6,0.4-1,0.7-1.4c0.3-0.4,0.7-0.7,1.1-0.9
		c0.5-0.2,1-0.3,1.7-0.3c1.3,0,2.2,0.4,2.7,1.1s0.8,1.7,0.8,3c0,0.6-0.1,1.2-0.2,1.8c-0.1,0.6-0.3,1.1-0.5,1.5l-3,6.6H20L22.6,297.1
		L22.6,297.1z M22.6,295.4c0.5,0,0.9-0.2,1-0.6c0.2-0.4,0.3-0.9,0.3-1.6s-0.1-1.2-0.3-1.6c-0.2-0.4-0.5-0.6-1.1-0.6
		c-0.5,0-0.9,0.2-1.1,0.5c-0.2,0.4-0.3,1-0.3,1.8c0,0.6,0.1,1.1,0.3,1.5C21.7,295.2,22,295.4,22.6,295.4z"/>
</g>
<g>
	<path class="st0" d="M16.9,273v-11.4L15,263v-2.4l2.1-1.5h2.1V273H16.9z"/>
	<path class="st0" d="M31.4,269.6c0,0.6-0.1,1.1-0.3,1.5c-0.2,0.4-0.5,0.8-0.8,1.1c-0.3,0.3-0.7,0.5-1.1,0.7s-0.9,0.2-1.4,0.2
		s-0.9-0.1-1.4-0.2s-0.8-0.4-1.1-0.7c-0.3-0.3-0.6-0.7-0.8-1.1c-0.2-0.4-0.3-0.9-0.3-1.5v-7.1c0-0.6,0.1-1.1,0.3-1.5
		s0.5-0.8,0.8-1.1c0.3-0.3,0.7-0.5,1.1-0.7s0.9-0.2,1.4-0.2s0.9,0.1,1.4,0.2c0.4,0.2,0.8,0.4,1.1,0.7c0.3,0.3,0.6,0.7,0.8,1.1
		s0.3,0.9,0.3,1.5V269.6z M29.2,262.5c0-0.4-0.1-0.8-0.4-1s-0.6-0.4-1-0.4s-0.7,0.1-1,0.4c-0.3,0.2-0.4,0.6-0.4,1v7.1
		c0,0.5,0.1,0.8,0.4,1s0.6,0.4,1,0.4s0.7-0.1,1-0.4c0.3-0.2,0.4-0.6,0.4-1V262.5z"/>
</g>
<g>
	<path class="st0" d="M16.9,243v-11.4L15,233v-2.4l2.1-1.5h2.1V243H16.9z"/>
	<path class="st0" d="M27.4,243v-11.4l-1.9,1.4v-2.4l2.1-1.5h2.1V243H27.4z"/>
</g>
<g>
	<path class="st0" d="M16.9,213v-11.4L15,203v-2.4l2.1-1.5h2.1V213H16.9z"/>
	<path class="st0" d="M24,202.7c0.1-1.2,0.5-2.1,1.1-2.8s1.5-1,2.6-1s2,0.3,2.7,0.9c0.6,0.6,1,1.5,1,2.6c0,0.5-0.1,1-0.2,1.5
		c-0.2,0.5-0.4,1-0.7,1.5l-3.6,5.4h4.4v2.1H24v-2l4.5-6.7c0.2-0.3,0.3-0.6,0.4-0.9c0.1-0.3,0.1-0.6,0.1-0.9c0-0.4-0.1-0.7-0.3-1
		s-0.6-0.5-1-0.5s-0.7,0.2-1,0.5s-0.4,0.8-0.5,1.5L24,202.7z"/>
</g>
<g>
	<path class="st0" d="M16.9,183v-11.4L15,173v-2.4l2.1-1.5h2.1V183H16.9z"/>
	<path class="st0" d="M29.9,175.8c0.4,0.2,0.6,0.4,0.9,0.6s0.4,0.5,0.5,0.8s0.2,0.6,0.2,0.9c0,0.3,0,0.7,0,1c0,0.6-0.1,1.2-0.2,1.7
		s-0.4,0.9-0.7,1.3c-0.3,0.4-0.7,0.6-1.2,0.8s-1,0.3-1.7,0.3c-0.5,0-0.9-0.1-1.4-0.2c-0.4-0.1-0.8-0.3-1.1-0.6
		c-0.3-0.3-0.6-0.6-0.8-1.1c-0.2-0.4-0.3-0.9-0.4-1.5l2.2-0.3c0.1,1.1,0.6,1.7,1.5,1.7c0.5,0,0.9-0.2,1.1-0.5
		c0.3-0.4,0.4-0.9,0.4-1.5c0-0.8-0.1-1.3-0.4-1.7s-0.7-0.6-1.3-0.6h-0.9V175h0.9c0.6,0,1-0.2,1.2-0.5s0.4-0.8,0.4-1.4
		c0-0.2,0-0.5-0.1-0.7c0-0.2-0.1-0.4-0.2-0.6c-0.1-0.2-0.2-0.3-0.4-0.4s-0.4-0.2-0.7-0.2c-0.4,0-0.8,0.1-1,0.4
		c-0.2,0.3-0.4,0.7-0.4,1.3c-0.1,0-0.3,0-0.5-0.1s-0.4-0.1-0.6-0.1s-0.4-0.1-0.6-0.1s-0.4-0.1-0.5-0.1c0.1-1.1,0.5-1.9,1.2-2.5
		s1.5-0.9,2.5-0.9c0.7,0,1.3,0.1,1.8,0.3s0.8,0.5,1.1,0.9c0.3,0.4,0.5,0.8,0.6,1.3s0.2,1,0.2,1.5c0,0.3,0,0.5-0.1,0.8
		c0,0.3-0.1,0.5-0.2,0.8s-0.3,0.5-0.5,0.7S30.2,175.6,29.9,175.8z"/>
</g>
<g>
	<path class="st0" d="M16.9,153v-11.4L15,143v-2.4l2.1-1.5h2.1V153H16.9z"/>
	<path class="st0" d="M30.8,151v2h-2.2v-2h-5v-2l3.9-10h2.3l-3.8,9.8h2.6v-3.5h2.2v3.5h1v2.1L30.8,151L30.8,151z"/>
</g>
<g>
	<path class="st0" d="M16.9,123v-11.4L15,113v-2.4l2.1-1.5h2.1V123H16.9z"/>
	<path class="st0" d="M26.6,114.3c0.3-0.3,0.6-0.4,0.9-0.5s0.6-0.1,0.9-0.1c0.6,0,1.1,0.1,1.5,0.3c0.4,0.2,0.7,0.5,0.9,0.9
		s0.4,0.8,0.5,1.4c0.1,0.5,0.1,1.1,0.1,1.7c0,0.8-0.1,1.5-0.2,2.1s-0.3,1.2-0.6,1.6c-0.3,0.4-0.7,0.8-1.1,1
		c-0.5,0.2-1.1,0.3-1.8,0.3c-0.5,0-1-0.1-1.4-0.2s-0.8-0.3-1.1-0.6c-0.3-0.3-0.6-0.7-0.8-1.1c-0.2-0.5-0.3-1-0.3-1.7l2.2-0.1
		c0,0.6,0.2,1,0.4,1.3c0.2,0.3,0.6,0.4,1,0.4c0.3,0,0.6-0.1,0.8-0.2c0.2-0.2,0.3-0.4,0.4-0.7s0.2-0.6,0.2-0.9s0-0.7,0-1s0-0.6,0-0.9
		s-0.1-0.6-0.2-0.8c-0.1-0.2-0.2-0.4-0.4-0.6c-0.2-0.1-0.4-0.2-0.8-0.2c-0.3,0-0.5,0.1-0.8,0.2c-0.2,0.1-0.4,0.4-0.6,0.7h-2v-7.5
		h6.8v2.1h-4.7L26.6,114.3L26.6,114.3z"/>
</g>
<g>
	<path class="st0" d="M16.9,93V81.6L15,83v-2.4l2.1-1.5h2.1V93H16.9z"/>
	<path class="st0" d="M27.7,85c0.1-0.1,0.3-0.1,0.5-0.2c0.2,0,0.3,0,0.5,0c0.4,0,0.8,0.1,1.2,0.3s0.6,0.5,0.9,0.8
		c0.2,0.3,0.4,0.7,0.5,1.2s0.2,1,0.2,1.6c0,1.4-0.3,2.4-0.9,3.2c-0.6,0.8-1.5,1.2-2.8,1.2c-1.2,0-2.1-0.3-2.7-1s-0.9-1.7-0.9-3.1
		c0-0.6,0.1-1.2,0.2-1.8s0.3-1,0.5-1.5c0.1-0.2,0.2-0.4,0.4-0.8s0.4-0.8,0.6-1.3s0.4-1,0.7-1.5c0.2-0.5,0.4-1,0.6-1.4
		s0.4-0.8,0.5-1.1c0.1-0.3,0.2-0.5,0.2-0.6h2.4c-0.1,0.2-0.2,0.4-0.3,0.7c-0.1,0.3-0.3,0.7-0.5,1c-0.2,0.4-0.3,0.8-0.5,1.2
		s-0.4,0.8-0.5,1.2c-0.2,0.4-0.3,0.7-0.5,1C27.9,84.6,27.7,84.8,27.7,85L27.7,85z M27.9,86.7c-0.3,0-0.5,0.1-0.7,0.2
		s-0.3,0.3-0.4,0.5s-0.2,0.4-0.2,0.7s-0.1,0.6-0.1,0.9c0,0.7,0.1,1.2,0.3,1.6c0.2,0.4,0.5,0.5,1.1,0.5c0.5,0,0.9-0.2,1.1-0.5
		c0.2-0.4,0.3-0.9,0.3-1.7c0-0.6-0.1-1.1-0.3-1.5C28.7,86.8,28.4,86.7,27.9,86.7z"/>
</g>
<g>
	<path class="st0" d="M16.9,63V51.6L15,53v-2.4l2.1-1.5h2.1V63H16.9z"/>
	<path class="st0" d="M27.2,63h-2.3L29,51.2h-2.7v1.7h-2.1v-3.8h7.2v2L27.2,63z"/>
</g>
<g>
	<path class="st1" d="M637.9,569.2c-0.1,0.6-0.4,1-0.9,1.4c-0.4,0.3-1,0.5-1.6,0.5c-0.4,0-0.8-0.1-1.1-0.2s-0.6-0.3-0.8-0.6
		c-0.2-0.2-0.4-0.5-0.5-0.8c-0.1-0.3-0.2-0.7-0.2-1v-3.2c0-0.3,0.1-0.6,0.2-1c0.1-0.3,0.3-0.6,0.5-0.8s0.5-0.4,0.8-0.6
		c0.3-0.1,0.7-0.2,1.1-0.2c0.7,0,1.2,0.2,1.6,0.5c0.4,0.4,0.7,0.8,0.8,1.3l-1.3,0.4c0-0.1-0.1-0.2-0.1-0.3c-0.1-0.1-0.1-0.2-0.2-0.3
		c-0.1-0.1-0.2-0.2-0.3-0.2c-0.1-0.1-0.3-0.1-0.5-0.1c-0.2,0-0.4,0-0.5,0.1c-0.1,0.1-0.3,0.2-0.4,0.3c-0.1,0.1-0.2,0.2-0.2,0.4
		c0,0.1-0.1,0.3-0.1,0.4v3.3c0,0.2,0,0.3,0.1,0.5c0,0.2,0.1,0.3,0.2,0.4c0.1,0.1,0.2,0.2,0.4,0.3c0.1,0.1,0.3,0.1,0.5,0.1
		c0.3,0,0.5-0.1,0.8-0.3s0.3-0.4,0.4-0.7L637.9,569.2z"/>
	<path class="st1" d="M639.7,571v-8.4h4.6v1.3h-3.3v2.2h2.8v1.2h-2.8v2.3h3.3v1.3H639.7z"/>
	<path class="st1" d="M646.1,571v-8.4h1.4v3.5h0.7c0.1,0,0.2,0,0.4,0c0.1,0,0.2-0.1,0.4-0.2s0.2-0.2,0.3-0.4
		c0.1-0.2,0.2-0.4,0.2-0.6l0.6-2.3h1.3l-0.6,2.5c-0.1,0.4-0.3,0.7-0.4,1c-0.2,0.3-0.4,0.4-0.7,0.5c0.3,0.1,0.6,0.3,0.8,0.6
		c0.2,0.3,0.3,0.6,0.4,1l0.7,2.7h-1.4l-0.6-2.4c-0.1-0.5-0.3-0.8-0.5-1s-0.5-0.2-0.8-0.2h-0.7v3.6H646.1z"/>
	<path class="st1" d="M657.8,571h-4.7v-8.4h1.4v7.1h2.3v-7.1h1.4v7.1h0.8v3h-1.2V571z"/>
	<path class="st1" d="M660.6,571v-8.4h1.4v5.6c0,0,0,0,0,0c0,0,0,0,0,0c0.2-0.3,0.4-0.7,0.5-1c0.2-0.3,0.3-0.7,0.5-1
		c0.3-0.6,0.6-1.2,0.9-1.8s0.6-1.2,0.9-1.8h1.3v8.4h-1.4v-5.4h0c-0.1,0.3-0.3,0.5-0.4,0.8c-0.1,0.3-0.3,0.5-0.4,0.8l-2,3.8H660.6z"
		/>
	<path class="st1" d="M673.2,562.6v8.4h-1.4v-3.5h-0.7c-0.3,0-0.5,0.1-0.8,0.3c-0.2,0.2-0.4,0.5-0.5,1l-0.5,2.3h-1.4l0.6-2.5
		c0.1-0.3,0.2-0.6,0.3-0.8c0.1-0.2,0.3-0.4,0.6-0.5c-0.4-0.2-0.8-0.4-0.9-0.8c-0.2-0.4-0.3-0.8-0.3-1.2c0-0.4,0.1-0.7,0.2-1
		c0.1-0.3,0.3-0.6,0.5-0.8c0.2-0.2,0.5-0.4,0.8-0.5c0.3-0.1,0.6-0.2,1-0.2H673.2z M669.5,565.2c0,0.4,0.1,0.7,0.4,0.8
		c0.2,0.2,0.5,0.2,0.9,0.2h1.1v-2.3h-1.1c-0.4,0-0.7,0.1-0.9,0.3C669.6,564.5,669.5,564.8,669.5,565.2z"/>
	<path class="st1" d="M680.7,571v-6.9l-1.2,0.9v-1.4l1.2-0.9h1.2v8.4H680.7z"/>
</g>
<g>
	<path class="st1" d="M366.9,569.2c-0.1,0.6-0.4,1-0.9,1.4c-0.4,0.3-1,0.5-1.6,0.5c-0.4,0-0.8-0.1-1.1-0.2s-0.6-0.3-0.8-0.6
		c-0.2-0.2-0.4-0.5-0.5-0.8c-0.1-0.3-0.2-0.7-0.2-1v-3.2c0-0.3,0.1-0.6,0.2-1c0.1-0.3,0.3-0.6,0.5-0.8s0.5-0.4,0.8-0.6
		c0.3-0.1,0.7-0.2,1.1-0.2c0.7,0,1.2,0.2,1.6,0.5c0.4,0.4,0.7,0.8,0.8,1.3l-1.3,0.4c0-0.1-0.1-0.2-0.1-0.3c-0.1-0.1-0.1-0.2-0.2-0.3
		c-0.1-0.1-0.2-0.2-0.3-0.2c-0.1-0.1-0.3-0.1-0.5-0.1c-0.2,0-0.4,0-0.5,0.1c-0.1,0.1-0.3,0.2-0.4,0.3c-0.1,0.1-0.2,0.2-0.2,0.4
		c0,0.1-0.1,0.3-0.1,0.4v3.3c0,0.2,0,0.3,0.1,0.5c0,0.2,0.1,0.3,0.2,0.4c0.1,0.1,0.2,0.2,0.4,0.3c0.1,0.1,0.3,0.1,0.5,0.1
		c0.3,0,0.5-0.1,0.8-0.3s0.3-0.4,0.4-0.7L366.9,569.2z"/>
	<path class="st1" d="M368.7,571v-8.4h4.6v1.3h-3.3v2.2h2.8v1.2h-2.8v2.3h3.3v1.3H368.7z"/>
	<path class="st1" d="M375.1,571v-8.4h1.4v3.5h0.7c0.1,0,0.2,0,0.4,0c0.1,0,0.2-0.1,0.4-0.2s0.2-0.2,0.3-0.4
		c0.1-0.2,0.2-0.4,0.2-0.6l0.6-2.3h1.3l-0.6,2.5c-0.1,0.4-0.3,0.7-0.4,1c-0.2,0.3-0.4,0.4-0.7,0.5c0.3,0.1,0.6,0.3,0.8,0.6
		c0.2,0.3,0.3,0.6,0.4,1l0.7,2.7h-1.4l-0.6-2.4c-0.1-0.5-0.3-0.8-0.5-1s-0.5-0.2-0.8-0.2h-0.7v3.6H375.1z"/>
	<path class="st1" d="M386.8,571h-4.7v-8.4h1.4v7.1h2.3v-7.1h1.4v7.1h0.8v3h-1.2V571z"/>
	<path class="st1" d="M389.6,571v-8.4h1.4v5.6c0,0,0,0,0,0c0,0,0,0,0,0c0.2-0.3,0.4-0.7,0.5-1c0.2-0.3,0.3-0.7,0.5-1
		c0.3-0.6,0.6-1.2,0.9-1.8s0.6-1.2,0.9-1.8h1.3v8.4h-1.4v-5.4h0c-0.1,0.3-0.3,0.5-0.4,0.8c-0.1,0.3-0.3,0.5-0.4,0.8l-2,3.8H389.6z"
		/>
	<path class="st1" d="M402.2,562.6v8.4h-1.4v-3.5h-0.7c-0.3,0-0.5,0.1-0.8,0.3c-0.2,0.2-0.4,0.5-0.5,1l-0.5,2.3h-1.4l0.6-2.5
		c0.1-0.3,0.2-0.6,0.3-0.8c0.1-0.2,0.3-0.4,0.6-0.5c-0.4-0.2-0.8-0.4-0.9-0.8c-0.2-0.4-0.3-0.8-0.3-1.2c0-0.4,0.1-0.7,0.2-1
		c0.1-0.3,0.3-0.6,0.5-0.8c0.2-0.2,0.5-0.4,0.8-0.5c0.3-0.1,0.6-0.2,1-0.2H402.2z M398.5,565.2c0,0.4,0.1,0.7,0.4,0.8
		c0.2,0.2,0.5,0.2,0.9,0.2h1.1v-2.3h-1.1c-0.4,0-0.7,0.1-0.9,0.3C398.6,564.5,398.5,564.8,398.5,565.2z"/>
	<path class="st1" d="M407.6,564.8c0-0.7,0.3-1.3,0.7-1.7c0.4-0.4,0.9-0.6,1.5-0.6c0.7,0,1.2,0.2,1.6,0.5c0.4,0.4,0.6,0.9,0.6,1.6
		c0,0.3,0,0.6-0.1,0.9s-0.2,0.6-0.4,0.9l-2.2,3.3h2.7v1.3h-4.3v-1.2l2.7-4c0.1-0.2,0.2-0.3,0.2-0.5c0-0.2,0.1-0.4,0.1-0.5
		c0-0.2-0.1-0.4-0.2-0.6c-0.1-0.2-0.3-0.3-0.6-0.3c-0.2,0-0.4,0.1-0.6,0.3c-0.2,0.2-0.3,0.5-0.3,0.9L407.6,564.8z"/>
</g>
<g>
	<path class="st1" d="M126.9,569.2c-0.1,0.6-0.4,1-0.9,1.4c-0.4,0.3-1,0.5-1.6,0.5c-0.4,0-0.8-0.1-1.1-0.2s-0.6-0.3-0.8-0.6
		c-0.2-0.2-0.4-0.5-0.5-0.8c-0.1-0.3-0.2-0.7-0.2-1v-3.2c0-0.3,0.1-0.6,0.2-1c0.1-0.3,0.3-0.6,0.5-0.8s0.5-0.4,0.8-0.6
		c0.3-0.1,0.7-0.2,1.1-0.2c0.7,0,1.2,0.2,1.6,0.5c0.4,0.4,0.7,0.8,0.8,1.3l-1.3,0.4c0-0.1-0.1-0.2-0.1-0.3c-0.1-0.1-0.1-0.2-0.2-0.3
		c-0.1-0.1-0.2-0.2-0.3-0.2c-0.1-0.1-0.3-0.1-0.5-0.1c-0.2,0-0.4,0-0.5,0.1c-0.1,0.1-0.3,0.2-0.4,0.3c-0.1,0.1-0.2,0.2-0.2,0.4
		c0,0.1-0.1,0.3-0.1,0.4v3.3c0,0.2,0,0.3,0.1,0.5c0,0.2,0.1,0.3,0.2,0.4c0.1,0.1,0.2,0.2,0.4,0.3c0.1,0.1,0.3,0.1,0.5,0.1
		c0.3,0,0.5-0.1,0.8-0.3s0.3-0.4,0.4-0.7L126.9,569.2z"/>
	<path class="st1" d="M128.7,571v-8.4h4.6v1.3h-3.3v2.2h2.8v1.2h-2.8v2.3h3.3v1.3H128.7z"/>
	<path class="st1" d="M135.1,571v-8.4h1.4v3.5h0.7c0.1,0,0.2,0,0.4,0c0.1,0,0.2-0.1,0.4-0.2s0.2-0.2,0.3-0.4
		c0.1-0.2,0.2-0.4,0.2-0.6l0.6-2.3h1.3l-0.6,2.5c-0.1,0.4-0.3,0.7-0.4,1c-0.2,0.3-0.4,0.4-0.7,0.5c0.3,0.1,0.6,0.3,0.8,0.6
		c0.2,0.3,0.3,0.6,0.4,1l0.7,2.7h-1.4l-0.6-2.4c-0.1-0.5-0.3-0.8-0.5-1s-0.5-0.2-0.8-0.2h-0.7v3.6H135.1z"/>
	<path class="st1" d="M146.8,571h-4.7v-8.4h1.4v7.1h2.3v-7.1h1.4v7.1h0.8v3h-1.2V571z"/>
	<path class="st1" d="M149.6,571v-8.4h1.4v5.6c0,0,0,0,0,0c0,0,0,0,0,0c0.2-0.3,0.4-0.7,0.5-1c0.2-0.3,0.3-0.7,0.5-1
		c0.3-0.6,0.6-1.2,0.9-1.8s0.6-1.2,0.9-1.8h1.3v8.4h-1.4v-5.4h0c-0.1,0.3-0.3,0.5-0.4,0.8c-0.1,0.3-0.3,0.5-0.4,0.8l-2,3.8H149.6z"
		/>
	<path class="st1" d="M162.2,562.6v8.4h-1.4v-3.5h-0.7c-0.3,0-0.5,0.1-0.8,0.3c-0.2,0.2-0.4,0.5-0.5,1l-0.5,2.3h-1.4l0.6-2.5
		c0.1-0.3,0.2-0.6,0.3-0.8c0.1-0.2,0.3-0.4,0.6-0.5c-0.4-0.2-0.8-0.4-0.9-0.8c-0.2-0.4-0.3-0.8-0.3-1.2c0-0.4,0.1-0.7,0.2-1
		c0.1-0.3,0.3-0.6,0.5-0.8c0.2-0.2,0.5-0.4,0.8-0.5c0.3-0.1,0.6-0.2,1-0.2H162.2z M158.5,565.2c0,0.4,0.1,0.7,0.4,0.8
		c0.2,0.2,0.5,0.2,0.9,0.2h1.1v-2.3h-1.1c-0.4,0-0.7,0.1-0.9,0.3C158.6,564.5,158.5,564.8,158.5,565.2z"/>
	<path class="st1" d="M171.2,566.7c0.2,0.1,0.4,0.2,0.5,0.3s0.2,0.3,0.3,0.5c0.1,0.2,0.1,0.3,0.1,0.5c0,0.2,0,0.4,0,0.6
		c0,0.4,0,0.7-0.1,1s-0.2,0.6-0.4,0.8c-0.2,0.2-0.4,0.4-0.7,0.5c-0.3,0.1-0.6,0.2-1,0.2c-0.3,0-0.6,0-0.8-0.1
		c-0.3-0.1-0.5-0.2-0.7-0.4c-0.2-0.2-0.4-0.4-0.5-0.6c-0.1-0.3-0.2-0.6-0.2-0.9l1.3-0.2c0,0.7,0.3,1,0.9,1c0.3,0,0.5-0.1,0.7-0.3
		c0.2-0.2,0.2-0.5,0.2-0.9c0-0.5-0.1-0.8-0.2-1c-0.2-0.2-0.4-0.3-0.8-0.3h-0.5v-1.1h0.5c0.4,0,0.6-0.1,0.8-0.3
		c0.1-0.2,0.2-0.5,0.2-0.8c0-0.1,0-0.3,0-0.4c0-0.1-0.1-0.3-0.1-0.4c-0.1-0.1-0.1-0.2-0.3-0.3c-0.1-0.1-0.2-0.1-0.4-0.1
		c-0.3,0-0.5,0.1-0.6,0.3c-0.1,0.2-0.2,0.4-0.3,0.8c-0.1,0-0.2,0-0.3,0c-0.1,0-0.2,0-0.4-0.1c-0.1,0-0.3,0-0.4-0.1
		c-0.1,0-0.2,0-0.3,0c0.1-0.6,0.3-1.1,0.7-1.5c0.4-0.4,0.9-0.6,1.5-0.6c0.4,0,0.8,0.1,1.1,0.2s0.5,0.3,0.7,0.5
		c0.2,0.2,0.3,0.5,0.3,0.8c0.1,0.3,0.1,0.6,0.1,0.9c0,0.2,0,0.3,0,0.5c0,0.2-0.1,0.3-0.2,0.5s-0.2,0.3-0.3,0.4
		C171.5,566.5,171.4,566.6,171.2,566.7z"/>
</g>
</svg>
